"Topic 1","Topic 2","Topic 3","Topic 4","Topic 5","Topic 6","Topic 7","Topic 8","Topic 9","Topic 10"
"can","imag","appl","youtub","space","facebook","courtesi","instagram","said","said"
"app","game","compani","video","will","can","can","ebola","will","report"
"use","team","new","show","mashabl","user","just","said","use","polic"
"will","world","will","like","year","social","one","will","can","protest"
"game","sport","iphon","one","throne","will","like","imag","compani","peopl"
"photo","olymp","devic","star","emil","compani","get","stori","peopl","state"
"one","cup","year","film","new","new","make","share","say","govern"
"like","fan","phone","time","storm","twitter","game","bowl","time","one"
"make","just","app","will","exhibitionphoto","app","day","super","one","will"
"also","celebr","mobil","just","lendofgam","use","know","new","year","accord"
"look","final","also","music","nasa","googl","time","comment","new","stori"
"design","player","report","new","said","media","friend","one","like","countri"
"new","one","million","movi","earth","like","mashabl","someth","make","citi"
"devic","win","googl","year","imag","peopl","will","day","work","offic"
"camera","get","announc","song","citi","work","love","hous","data","two"
"get","nba","share","stori","time","make","want","add","research","comment"
"take","time","now","get","water","say","take","first","also","also"
"featur","june","user","someth","one","also","thing","presid","inform","someth"
"time","score","microsoft","fan","weather","busi","tumblr","show","internet","share"
"screen","brazil","first","first","area","site","peopl","photo","may","new"
"just","play","one","make","may","share","someth","get","secur","told"
"video","match","price","play","like","time","flickr","peopl","get","group"
"glass","will","smartphon","share","station","get","look","obama","need","ukrain"
"googl","ball","samsung","love","nation","one","new","white","report","say"
"work","year","market","know","island","content","instagram","like","way","presid"
"phone","open","android","say","also","post","way","report","call","add"
"say","championship","ipad","best","use","market","book","car","even","offici"
"creat","new","mashabl","also","climat","help","even","just","job","kill"
"play","last","like","watch","can","product","life","commerci","chang","use"
"imag","footbal","product","comment","courtesi","brand","kid","also","govern","call"
"control","may","said","can","moon","way","share","video","state","forc"
"even","nation","servic","see","map","want","reddit","courtesi","accord","time"
"way","run","includ","seri","temperatur","digit","stori","news","person","militari"
"user","soccer","launch","episod","mile","onlin","use","drone","publish","day"
"android","youtub","offer","courtesi","sea","year","think","year","take","attack"
"want","leagu","come","war","show","job","imag","time","help","nation"
"see","school","amazon","look","hurrican","look","work","state","system","last"
"avail","feb","billion","peopl","day","creat","photo","two","program","year"
"window","first","last","charact","everi","just","also","health","want","russian"
"iphon","nfl","just","releas","west","network","realli","man","just","news"
"light","best","comment","realli","first","servic","help","includ","technolog","week"
"includ","high","time","season","scientist","video","world","world","mani","russia"
"color","globe","someth","add","record","now","good","octob","issu","sinc"
"technolog","summer","store","littl","live","see","littl","can","someth","unit"
"add","red","tablet","even","wind","search","tri","love","public","show"
"let","look","month","back","land","page","add","offici","studi","airlin"
"come","juli","stori","want","ocean","includ","read","decemb","law","includ"
"differ","basketbal","releas","perform","near","develop","comment","take","first","mani"
"set","video","watch","day","travel","day","year","famili","comput","support"
"robot","men","avail","take","mission","account","need","may","think","fire"
